/* XPM */
static char *_41e81caf9a843d5fa34681514d1081bcXyDr5Y9lRSQnwCf[] = {
/* columns rows colors chars-per-pixel */
"64 64 10 1 ",
"  c None",
". c #282828",
"X c #1858A0",
"o c #4858B0",
"O c #5078C8",
"+ c #4890D0",
"@ c #88C0F0",
"# c #C0E8F8",
"$ c #E8F8F8",
"% c #F8F8F8",
/* pixels */
"                                                                ",
"                                                                ",
"                                                                ",
"                                                                ",
"                                                                ",
"                                                                ",
"                                                                ",
"                                                                ",
"                                                                ",
"                                                                ",
"                                                                ",
"                                                                ",
"                                                                ",
"                                                                ",
"                                            Oooo                ",
"                                          o@##@@o               ",
"                                         o###@@@.               ",
"                           Oo           o###@@@@.               ",
"                          O$#o          O###@@@.                ",
"                       OooOO#.         O###@@@.                 ",
"                     o@######O.        o###@@o                  ",
"                    o#########o        o##@@@.                  ",
"                 oo@###########.       o##@@o                   ",
"               o@$$############%       o##@@.                   ",
"               o$########O#####Xo      O##@o                    ",
"               o@@@#######O####Xo       @#@o                    ",
"                o@@####ooo######o       o@@o                    ",
"                 o@@##o%+%o#####@o      o@@@o                   ",
"                 o@@##oX+%%#####@.       o@@ooo                 ",
"                  o@##oXX%%####@@.       o@@o#@.                ",
"                  .@###OO#####@@. oo      o@o##.                ",
"                   .@@#######o.. o#o oo   oo#@@.                ",
"                    .o@@##Ooo. o@##.o#Oo   o#@@.                ",
"                      ..o@#@@@o##@. o#@.  o#@@o                 ",
"                       o####@@@o@. o#@@.  O#@@o.                ",
"                      Ooo#######oo o#@@o o#@@@o.                ",
"                     o@#######$$##oo#@o  o@@@.@@.               ",
"                    o$#######$$$##o#@@.o o@@O.o#o               ",
"                   o###@.o###$###@o#@@.@o@@@o o##.              ",
"                  o@o@..O@#####oooo#@@.oo@@O.  @$.              ",
"                   o.o  o@###@o##o#@Oo@o@@@O.  o$.              ",
"                        o####o###o#@O.@oo@@o   o$.              ",
"                         o###O###o#@O.@oo@@.   o$.              ",
"                         .######@o#@oO@. ..    @$.              ",
"                          .####@@o#@.@.       o$$.              ",
"                           .@@@@@o@@..        o$o               ",
"                            .o@@@@@o.        o$$.               ",
"                              .....@@oo    o@#$.                ",
"                                   o@@@oooo@##.                 ",
"                                    .o@@@@@@o.                  ",
"                                      ......                    ",
"                                                                ",
"                                                                ",
"                                                                ",
"                                                                ",
"                                                                ",
"                                                                ",
"                                                                ",
"                                                                ",
"                                                                ",
"                                                                ",
"                                                                ",
"                                                                ",
"                                                                "
};
